HW10
…
edgelist$`tie-type`[is.na(edgelist$`tie-type`)] = 0 #NA values for tie-type to 0  
edgelist <- na.omit(edgelist)
edgelist <- edgelist %>%
  arrange(`out-tie`) %>% 
  filter(`out-tie` != `in-tie`)
##there are 3 variables in the edge list: out-tie, in-tie, and tie.
#creating nodelist
inclass <- subset(node, select = -c(2:41) )
inclass <- na.omit(inclass)
absent_people <- tibble (ID= c(3,4,8,9,10,11,12,13,14,16,19,21,22,25,26,27,29,37,39), trait = NA) #people who didnt take the survey 
nodelist <-rbind (inclass, absent_people) %>% arrange(`ID`) #combine  people took the survey and people didn't take the survey

edgelist

## # A tibble: 1,246 x 4
##    `out-tie` trait `in-tie` `tie-type`
##        <dbl> <dbl> <chr>    <chr>     
##  1         1     2 2        2         
##  2         1     2 3        0         
##  3         1     2 4        0         
##  4         1     2 5        0         
##  5         1     2 6        2         
##  6         1     2 7        0         
##  7         1     2 8        2         
##  8         1     2 8        4         
##  9         1     2 9        2         
## 10         1     2 10       2         
## # … with 1,236 more rows

nodelist

## # A tibble: 40 x 2
##       ID trait
##    <dbl> <dbl>
##  1     1     2
##  2     2     3
##  3     3    NA
##  4     4    NA
##  5     5     2
##  6     6     2
##  7     7     1
##  8     8    NA
##  9     9    NA
## 10    10    NA
## # … with 30 more rows
…
